<?xml version="1.0" encoding="UTF-8"?>
<svg width="237px" height="164px" viewBox="0 0 237 164" version="1.1" xmlns="http://www.w3.org/2000/svg" xmlns:xlink="http://www.w3.org/1999/xlink">
    <!-- Generator: Sketch 49.3 (51167) - http://www.bohemiancoding.com/sketch -->
    <title>illustrtation 2</title>
    <desc>Created with Sketch.</desc>
    <defs></defs>
    <g id="Page-1" stroke="none" stroke-width="1" fill="none" fill-rule="evenodd">
        <g id="showcase-1" transform="translate(-62.000000, -148.000000)">
            <g id="illustrtation-2" transform="translate(63.000000, 150.000000)">
                <path d="M31.4808279,160 L194.487275,160" id="Path-Copy-11" stroke="#666666" stroke-width="3" stroke-linecap="round"></path>
                <path d="M153.370097,106.629903 L198.629903,106.629903" id="Path-Copy-12" stroke="#666666" stroke-width="3" stroke-linecap="round" transform="translate(176.000000, 106.629903) rotate(-90.000000) translate(-176.000000, -106.629903) "></path>
                <path d="M199.5,160 L225.504807,160" id="Path-Copy-13" stroke="#666666" stroke-width="3" stroke-linecap="round"></path>
                <path d="M0.5,160 L26.5048072,160" id="Path-Copy-14" stroke="#666666" stroke-width="3" stroke-linecap="round"></path>
                <path d="M230.5,160 L234.531129,160" id="Path-Copy-15" stroke="#666666" stroke-width="3" stroke-linecap="round"></path>
                <path d="M182,107.5 L186.031129,107.5" id="Path-Copy-16" stroke="#666666" stroke-width="3" stroke-linecap="round" transform="translate(184.000000, 107.500000) rotate(-90.000000) translate(-184.000000, -107.500000) "></path>
                <path d="M179,107.5 L205.004807,107.5" id="Path-Copy-17" stroke="#666666" stroke-width="3" stroke-linecap="round" transform="translate(192.000000, 107.500000) rotate(-90.000000) translate(-192.000000, -107.500000) "></path>
                <path d="M196,107.5 L204,107.5" id="Path-Copy-18" stroke="#666666" stroke-width="3" stroke-linecap="round" transform="translate(200.000000, 107.500000) rotate(-90.000000) translate(-200.000000, -107.500000) "></path>
                <g id="Group-2-Copy" transform="translate(47.500000, 107.000000) scale(-1, 1) translate(-47.500000, -107.000000) translate(34.000000, 84.000000)" stroke="#666666" stroke-linecap="round" stroke-width="3">
                    <path d="M-21.5,22.6299027 L23.7598053,22.6299027" id="Path-Copy-7" transform="translate(1.129903, 22.629903) scale(-1, 1) rotate(-90.000000) translate(-1.129903, -22.629903) "></path>
                    <path d="M7.12990266,23.5 L11.1610315,23.5" id="Path-Copy-8" transform="translate(9.129903, 23.500000) scale(-1, 1) rotate(-90.000000) translate(-9.129903, -23.500000) "></path>
                    <path d="M4.12990266,23.5 L30.1347099,23.5" id="Path-Copy-9" transform="translate(17.129903, 23.500000) scale(-1, 1) rotate(-90.000000) translate(-17.129903, -23.500000) "></path>
                    <path d="M21.1299027,23.5 L29.1299027,23.5" id="Path-Copy-10" transform="translate(25.129903, 23.500000) scale(-1, 1) rotate(-90.000000) translate(-25.129903, -23.500000) "></path>
                </g>
                <path d="M121.44584,13.0080914 L121.44584,7 C121.44584,3.13400675 118.311833,6.15721211e-15 114.44584,0 L112.078446,0 C108.212452,7.10171439e-16 105.078446,3.13400675 105.078446,7 L105.078446,14.6226358 C105.078446,17.1131049 107.09737,19.132029 109.587839,19.132029 L109.587839,19.132029 C112.078308,19.132029 114.097232,21.1509531 114.097232,23.6414222 L114.097232,25.951297 C114.097232,28.562244 112.644132,30.9561896 110.327885,32.1611988 L62.3918284,57.0995605 C58.9621944,58.883801 57.6283394,63.1104814 59.4125799,66.5401154 C60.6175891,68.8563617 63.0115347,70.3094622 65.6224816,70.3094622 L171.94252,70.3094622 C175.808513,70.3094622 178.94252,67.1754555 178.94252,63.3094622 C178.94252,60.5628455 177.336237,58.0700238 174.835087,56.9350561 L123.775979,33.7655384 C121.806575,32.8718656 119.534671,32.9386876 117.621196,33.9465649 L89.5531621,48.7307346" id="Path-2-Copy" stroke="#666666" stroke-width="3" stroke-linecap="round"></path>
                <path d="M70,152.583424 L70,136" id="Path-3-Copy-4" stroke="#666666" stroke-width="3" stroke-linecap="round"></path>
                <path d="M165,114.583424 L165,98" id="Path-3-Copy-5" stroke="#666666" stroke-width="3" stroke-linecap="round"></path>
                <path d="M165,126.522681 L165,121" id="Path-3-Copy-6" stroke="#666666" stroke-width="3" stroke-linecap="round"></path>
                <path d="M165,137.522681 L165,132" id="Path-3-Copy-7" stroke="#666666" stroke-width="3" stroke-linecap="round"></path>
                <path d="M70,120.681336 L70,70.2136 C71.4507874,66.0712 74.3551787,64 78.713174,64 C83.0711693,64 109.762226,64 158.786345,64 C163.271341,64.7835174 165.51384,67.2646557 165.51384,71.443415 C165.51384,75.6221743 165.51384,81.4097047 165.51384,88.8060062 C162.3091,93.8927239 157.565235,96.4360827 151.282245,96.4360827 C141.85776,96.4360827 150.176103,106.418248 137.06371,111.628638 C123.951316,116.839029 119.108871,105.118531 108.585926,109.374873 C98.0629804,113.631216 107.178667,123.957514 93.7851292,125.978528 C84.8561038,127.325871 78.9349146,125.038051 76.0215614,119.11507 L70,120.681336 Z" id="Path-5-Copy" fill="#F67777"></path>
                <path d="M74,113.693343 L74,74.3176685 C75.2416001,70.7725562 77.7272107,69 81.4568319,69 C85.1864531,69 108.028959,69 149.984348,69 C153.822659,69.6705429 155.741814,71.7939289 155.741814,75.3701579 L155.741814,78.5960316 C118.204061,74.7589072 90.956792,86.4580112 74,113.693343 Z" id="Combined-Shape-Copy" fill="#FF8888"></path>
                <path d="M70,131.409227 L70,72 C70,67.581722 73.581722,64 78,64 L157.555666,64 C161.973944,64 165.555666,67.581722 165.555666,72 L165.555666,93.120978" id="Path-4-Copy" stroke="#666666" stroke-width="3" stroke-linecap="round"></path>
            </g>
        </g>
    </g>
</svg>