<?xml version="1.0" encoding="UTF-8"?>
<svg width="237px" height="191px" viewBox="0 0 237 191" version="1.1" xmlns="http://www.w3.org/2000/svg" xmlns:xlink="http://www.w3.org/1999/xlink">
    <!-- Generator: Sketch 49.3 (51167) - http://www.bohemiancoding.com/sketch -->
    <title>illustration 3</title>
    <desc>Created with Sketch.</desc>
    <defs>
        <rect id="path-1" x="131" y="35" width="57" height="103" rx="8"></rect>
        <rect id="path-2" x="180" y="58" width="17" height="11" rx="5.5"></rect>
        <rect id="path-3" x="180" y="69" width="17" height="11" rx="5.5"></rect>
        <rect id="path-4" x="180" y="80" width="17" height="11" rx="5.5"></rect>
        <rect id="path-5" x="180" y="91" width="17" height="11" rx="5.5"></rect>
    </defs>
    <g id="Page-1" stroke="none" stroke-width="1" fill="none" fill-rule="evenodd">
        <g id="showcase-1-copy" transform="translate(-62.000000, -119.000000)">
            <g id="illustration-3" transform="translate(63.000000, 120.000000)">
                <g id="Rectangle-4">
                    <use fill="#FFFFFF" fill-rule="evenodd" xlink:href="#path-1"></use>
                    <rect stroke="#666666" stroke-width="3" x="132.5" y="36.5" width="54" height="100" rx="8"></rect>
                </g>
                <path d="M127.291057,71.974758 L124.124316,87.2667418 C103.374772,110.509969 93,137.415633 93,167.983735 C93.1565465,167.85524 93.2024336,170.475321 93.1376613,175.843978 L93.1376603,175.843978 C93.0843581,180.261935 96.6226099,183.886607 101.040567,183.939909 C101.072736,183.940297 101.104907,183.940491 101.137079,183.940491 L161.57929,183.940497 C165.885704,183.940497 169.419395,180.531574 169.574129,176.227941 C170.78494,142.551651 160.915735,112.897918 139.966514,87.2667418 C138.28718,82.1401379 136.607845,77.0135341 134.928511,71.8869303 L134.928511,71.8869303 C134.364346,70.1646699 132.757267,69 130.944958,69 L130.944958,69 C129.175796,69 127.649812,70.242352 127.291057,71.974758 Z" id="Path-2-Copy-2" stroke="#666666" stroke-width="3" fill="#FFFFFF"></path>
                <path d="M111,178.540893 C124.732484,171.153036 137.760281,171.153036 150.083391,178.540893" id="Path-3-Copy" stroke="#666666" stroke-width="3"></path>
                <path d="M31.4808279,188 L194.487275,188" id="Path" stroke="#666666" stroke-width="3" stroke-linecap="round"></path>
                <path d="M199.5,188 L225.504807,188" id="Path-Copy" stroke="#666666" stroke-width="3" stroke-linecap="round"></path>
                <path d="M136.5,14 L162.504807,14" id="Path-Copy-19" stroke="#666666" stroke-width="3" stroke-linecap="round" transform="translate(149.500000, 14.000000) rotate(-90.000000) translate(-149.500000, -14.000000) "></path>
                <path d="M0.5,188 L26.5048072,188" id="Path-Copy-6" stroke="#666666" stroke-width="3" stroke-linecap="round"></path>
                <path d="M230.5,188 L234.531129,188" id="Path-Copy-2" stroke="#666666" stroke-width="3" stroke-linecap="round"></path>
                <path d="M156.98617,16.5 L166.031129,16.5" id="Path-Copy-20" stroke="#666666" stroke-width="3" stroke-linecap="round" transform="translate(161.500000, 17.000000) rotate(-90.000000) translate(-161.500000, -17.000000) "></path>
                <path d="M170,23.5 L174.031129,23.5" id="Path-Copy-21" stroke="#666666" stroke-width="3" stroke-linecap="round" transform="translate(172.000000, 23.500000) rotate(-90.000000) translate(-172.000000, -23.500000) "></path>
                <path d="M99.291057,71.974758 L96.1243159,87.2667418 C75.374772,110.509969 65,137.415633 65,167.983735 C65.1565465,167.85524 65.2024336,170.475321 65.1376613,175.843978 L65.1376603,175.843978 C65.0843581,180.261935 68.6226099,183.886607 73.0405668,183.939909 C73.0727361,183.940297 73.1049075,183.940491 73.1370791,183.940491 L133.57929,183.940497 C137.885704,183.940497 141.419395,180.531574 141.574129,176.227941 C142.78494,142.551651 132.915735,112.897918 111.966514,87.2667418 C110.28718,82.1401379 108.607845,77.0135341 106.928511,71.8869303 L106.928511,71.8869303 C106.364346,70.1646699 104.757267,69 102.944958,69 L102.944958,69 C101.175796,69 99.6498124,70.242352 99.291057,71.974758 Z" id="Path-2" stroke="#666666" stroke-width="3" fill="#FFFFFF"></path>
                <path d="M83,178.540893 C96.7324839,171.153036 109.760281,171.153036 122.083391,178.540893" id="Path-3" stroke="#666666" stroke-width="3"></path>
                <path d="M130.935678,153 C134.525528,153 135.271223,144.045695 132.601233,133 C129.931244,121.954305 124.85664,113 121.266789,113 C117.676938,113 116.931244,121.954305 119.601233,133 C122.271223,144.045695 127.345827,153 130.935678,153 Z" id="Oval-2" stroke="#666666" stroke-width="3" fill="#FFEF25"></path>
                <path d="M158.935678,153 C162.525528,153 163.271223,144.045695 160.601233,133 C157.931244,121.954305 152.85664,113 149.266789,113 C145.676938,113 144.931244,121.954305 147.601233,133 C150.271223,144.045695 155.345827,153 158.935678,153 Z" id="Oval-2-Copy" stroke="#666666" stroke-width="3" fill="#9EF2E6"></path>
                <g id="Rectangle-5" transform="translate(188.500000, 63.500000) rotate(17.000000) translate(-188.500000, -63.500000) ">
                    <use fill="#FFFFFF" fill-rule="evenodd" xlink:href="#path-2"></use>
                    <rect stroke="#666666" stroke-width="3" x="181.5" y="59.5" width="14" height="8" rx="4"></rect>
                </g>
                <g id="Rectangle-5-Copy" transform="translate(188.500000, 74.500000) rotate(17.000000) translate(-188.500000, -74.500000) ">
                    <use fill="#FFFFFF" fill-rule="evenodd" xlink:href="#path-3"></use>
                    <rect stroke="#666666" stroke-width="3" x="181.5" y="70.5" width="14" height="8" rx="4"></rect>
                </g>
                <g id="Rectangle-5-Copy-2" transform="translate(188.500000, 85.500000) rotate(17.000000) translate(-188.500000, -85.500000) ">
                    <use fill="#FFFFFF" fill-rule="evenodd" xlink:href="#path-4"></use>
                    <rect stroke="#666666" stroke-width="3" x="181.5" y="81.5" width="14" height="8" rx="4"></rect>
                </g>
                <g id="Rectangle-5-Copy-3" transform="translate(188.500000, 96.500000) rotate(17.000000) translate(-188.500000, -96.500000) ">
                    <use fill="#FFFFFF" fill-rule="evenodd" xlink:href="#path-5"></use>
                    <rect stroke="#666666" stroke-width="3" x="181.5" y="92.5" width="14" height="8" rx="4"></rect>
                </g>
                <circle id="Oval-3" stroke="#666666" stroke-width="3" fill="#C0F31E" transform="translate(160.500000, 58.500000) rotate(-360.000000) translate(-160.500000, -58.500000) " cx="160.5" cy="58.5" r="11.5"></circle>
                <polygon id="Star" fill="#FFFFFF" points="161 62.2021187 157.90983 63.5105652 158.199322 60.1673067 156 57.6327126 159.269086 56.8749117 161 54 162.730914 56.8749117 166 57.6327126 163.800678 60.1673067 164.09017 63.5105652"></polygon>
            </g>
        </g>
    </g>
</svg>