<?xml version="1.0" encoding="UTF-8"?>
<svg width="360px" height="231px" viewBox="0 0 360 231" version="1.1" xmlns="http://www.w3.org/2000/svg" xmlns:xlink="http://www.w3.org/1999/xlink">
    <!-- Generator: Sketch 49.3 (51167) - http://www.bohemiancoding.com/sketch -->
    <title>Triangle</title>
    <desc>Created with Sketch.</desc>
    <defs>
        <linearGradient x1="87.5450594%" y1="107.202005%" x2="22.0401654%" y2="36.8744412%" id="linearGradient-1">
            <stop stop-color="#1CF7F9" offset="0%"></stop>
            <stop stop-color="#03C5C9" offset="100%"></stop>
        </linearGradient>
        <circle id="path-2" cx="266.5" cy="266.5" r="266.5"></circle>
        <linearGradient x1="75.0292273%" y1="100%" x2="71.9606876%" y2="11.3820879%" id="linearGradient-4">
            <stop stop-color="#FFFFFF" offset="0%"></stop>
            <stop stop-color="#D8D8D8" stop-opacity="0" offset="100%"></stop>
        </linearGradient>
        <linearGradient x1="24.3577507%" y1="108.883524%" x2="92.2603219%" y2="-21.0831961%" id="linearGradient-5">
            <stop stop-color="#FFFFFF" offset="0%"></stop>
            <stop stop-color="#D8D8D8" stop-opacity="0" offset="100%"></stop>
        </linearGradient>
        <linearGradient x1="107.840313%" y1="100%" x2="0%" y2="0%" id="linearGradient-6">
            <stop stop-color="#FFFFFF" offset="0%"></stop>
            <stop stop-color="#D8D8D8" stop-opacity="0" offset="100%"></stop>
        </linearGradient>
    </defs>
    <g id="Page-1" stroke="none" stroke-width="1" fill="none" fill-rule="evenodd">
        <g id="showcase-1-copy-2">
            <g id="Triangle" transform="translate(-87.000000, -302.000000)">
                <mask id="mask-3" fill="white">
                    <use xlink:href="#path-2"></use>
                </mask>
                <use id="Mask" fill="url(#linearGradient-1)" xlink:href="#path-2"></use>
                <polygon fill="url(#linearGradient-4)" opacity="0.629415761" mask="url(#mask-3)" points="489 235 489 510.756902 194 510.756902"></polygon>
                <circle id="Oval-2-Copy-2" fill="url(#linearGradient-5)" opacity="0.394304801" mask="url(#mask-3)" cx="194" cy="404" r="73"></circle>
                <circle id="Oval-2-Copy-3" fill="url(#linearGradient-6)" opacity="0.394304801" mask="url(#mask-3)" cx="261" cy="355" r="32"></circle>
                <circle id="Oval-2-Copy-4" fill="url(#linearGradient-6)" opacity="0.394304801" mask="url(#mask-3)" cx="107.5" cy="422.5" r="20.5"></circle>
            </g>
        </g>
    </g>
</svg>